{
    "BASE_URL": "",
    "SECURE_TRADING": {
        "ST_SITE_REFERENCE": "",
        "ST_CURRECY_ISO": "",
        "ST_PROFILE": "",
        "ST_DEFAULT_PROFILE": "",
        "ST_VERSION": "",
        "ST_ACCOUNT_TYPE": "",
        "ST_SUCCESSFUL_REDIRECT": "/processes/redirect.php?transaction=success",
        "ST_FAILURE_REDIRECT": "/processes/redirect.php?transaction=failed",
        "ST_SUCCESSFUL_NOTIFICATION": "/processes/notify.php?transaction=success",
        "ST_FAILURE_NOTIFICATION": "/processes/notify.php?transaction=failed",
        "ST_USERNAME": "",
        "ST_PASSWORD": ""
    }
}